{
        "auths": {
                "localhost:9001": {    
                        "auth": "YWRtaW46X0ZqazE2MDg="
                },
                "localhost:9002": {    
                        "auth": "YWRtaW46X0ZqazE2MDg="
                }
        }
}
